…
Now let's have a look at downloaded data

{% highlight r %}
library(tibble)

as_tibble(DHEexp_data)
{% endhighlight %}
{% highlight r %}
# A tibble: 183 x 6
   iso2c country     year Military_expenditure Health_expenditure Education_expenditure
   <chr> <chr>      <int>                <dbl>              <dbl>                 <dbl>
 1 BD    Bangladesh  1960                   NA                 NA                    NA
 2 BD    Bangladesh  1961                   NA                 NA                    NA
 3 BD    Bangladesh  1962                   NA                 NA                    NA
 4 BD    Bangladesh  1963                   NA                 NA                    NA
 5 BD    Bangladesh  1964                   NA                 NA                    NA
 6 BD    Bangladesh  1965                   NA                 NA                    NA
 7 BD    Bangladesh  1966                   NA                 NA                    NA
 8 BD    Bangladesh  1967                   NA                 NA                    NA
 9 BD    Bangladesh  1968                   NA                 NA                    NA
10 BD    Bangladesh  1969                   NA                 NA                    NA
# ... with 173 more rows
{% endhighlight %}
# **2. Cleaning the Data**

After downloading, the next stage is to clean data. From the glimpse of the data. As I am concerned only with years for which data is available. Therefore, I want to remove observations with NAs.

{% highlight r %}
library(tidyr)
library(dplyr)

DHEexp_data <- drop_na(DHEexp_data)

as_tibble(DHEexp_data)
{% endhighlight %}
{% highlight r %}
# A tibble: 38 x 6
   iso2c country     year Military_expenditure Health_expenditure Education_expenditure
   <chr> <chr>      <int>                <dbl>              <dbl>                 <dbl>
 1 BD    Bangladesh  2000                 1.36               2.00                  2.13
 2 BD    Bangladesh  2001                 1.29               1.99                  2.17
 3 BD    Bangladesh  2002                 1.19               2.15                  2.02
 4 BD    Bangladesh  2003                 1.14               2.19                  2.07
 5 BD    Bangladesh  2004                 1.12               2.21                  1.94
 6 BD    Bangladesh  2006                 1.11               2.32                  2.13
 7 BD    Bangladesh  2007                 1.11               2.39                  2.20
 8 BD    Bangladesh  2008                 1.06               2.35                  2.05
 9 BD    Bangladesh  2009                 1.16               2.40                  1.94
10 BD    Bangladesh  2011                 1.36               2.57                  2.13
# ... with 28 more rows
…
{% highlight r %}
yr3 <- count(DHEexp_data,year, sort = TRUE)

DHEexp_data <-left_join(DHEexp_data,yr3, by="year") 

DHEexp_data <- filter(DHEexp_data, n==3)

DHEexp_data <- select(DHEexp_data,1:6)

as_tibble(DHEexp_data)
{% endhighlight %}
{% highlight r %}
# A tibble: 21 x 6
   iso2c country     year Military_expenditure Health_expenditure Education_expenditure
   <chr> <chr>      <int>                <dbl>              <dbl>                 <dbl>
 1 BD    Bangladesh  2000                 1.36               2.00                  2.13
 2 BD    Bangladesh  2004                 1.12               2.21                  1.94
 3 BD    Bangladesh  2006                 1.11               2.32                  2.13
 4 BD    Bangladesh  2009                 1.16               2.40                  1.94
 5 BD    Bangladesh  2011                 1.36               2.57                  2.13
 6 BD    Bangladesh  2012                 1.32               2.57                  2.18
 7 BD    Bangladesh  2013                 1.26               2.50                  1.97
 8 IN    India       2000                 2.95               4.03                  4.32
 9 IN    India       2004                 2.83               3.96                  3.35
10 IN    India       2006                 2.53               3.63                  3.14
# ... with 11 more rows
…
DHEexp_data <- DHEexp_data %>% mutate_if(is.numeric,
                                         round, digits=2)

plotdata <- filter(DHEexp_data,year==2000 |
                     year==2006|
                     year==2012)

as_tibble(plotdata)
{% endhighlight %}
{% highlight r %}
# A tibble: 27 x 5
   iso2c country     year expenditures          values
   <chr> <chr>      <dbl> <chr>                  <dbl>
 1 BD    Bangladesh  2000 Military_expenditure    1.36
 2 BD    Bangladesh  2000 Health_expenditure      2   
 3 BD    Bangladesh  2000 Education_expenditure   2.13
 4 BD    Bangladesh  2006 Military_expenditure    1.11
 5 BD    Bangladesh  2006 Health_expenditure      2.32
 6 BD    Bangladesh  2006 Education_expenditure   2.13
 7 BD    Bangladesh  2012 Military_expenditure    1.32
 8 BD    Bangladesh  2012 Health_expenditure      2.57
 9 BD    Bangladesh  2012 Education_expenditure   2.18
10 IN    India       2000 Military_expenditure    2.95
# ... with 17 more rows
…
